id	source-language	source	target-language	comment-sys1	comment-sys2	reference-url	reference	comment
321	de	Großes Konvolut alter/älterer	en	Sys 1 comment	Sys 2 comment	 http://i.ebayimg.com/images/i/161401017732-0-1/s-l500.jpg	textual reference 1	global com1
654	de	Kreidler Florett RS Oldtimer	en	Sys 1 comment	Sys 2 comment	http://i.ebayimg.com/images/i/161401017732-0-1/s-l500.jpg	textual reference 2	global com2
987	de	Loop Schal Schlauchschal	en	Sys 1 comment	Sys 2 comment	http://i.ebayimg.com/images/i/161401017732-0-1/s-l500.jpg	textual reference 3	global com3
432	de	Steckregal Lagerregal Schwerlastregal	en	Sys 1 comment	Sys 2 comment	http://i.ebayimg.com/images/i/161401017732-0-1/s-l500.jpg	textual reference 4	global com4
