id	source-language	target-language	target-sys1	comment-sys1	target-sys2	comment-sys2	target-sys3	comment-sys3	reference-url	reference	comment
567	de	en	Sys 1 target text 	Sys 1 comment	Sys 2 target text 	Sys 2 comment	Sys 3 target text	Sys 3 comment	 http://i.ebayimg.com/images/i/161401017732-0-1/s-l500.jpg	textual reference 1	global com1
890	de	en	Sys 1 target text 	Sys 1 comment	Sys 2 target text 	Sys 2 comment	Sys 3 target text	Sys 3 comment	http://i.ebayimg.com/images/i/161401017732-0-1/s-l500.jpg	textual reference 2	global com2
345	de	en	Sys 1 target text 	Sys 1 comment	Sys 2 target text 	Sys 2 comment	Sys 3 target text	Sys 3 comment	http://i.ebayimg.com/images/i/161401017732-0-1/s-l500.jpg	textual reference 3	global com3
678	de	en	Sys 1 target text 	Sys 1 comment	Sys 2 target text 	Sys 2 comment	Sys 3 target text 	Sys 3 comment	http://i.ebayimg.com/images/i/161401017732-0-1/s-l500.jpg	textual reference 4	global com4
